{"FD008": {"default": {"time": "4939", "energy": "1185010668"}}}
{"FD007": {"default": {"time": "6371", "energy": "1528722760"}}}
{"FD006": {"default": {"time": "3161", "energy": "758267120"}}}
{"FD002": {"default": {"time": "693", "energy": "165900524"}}}
{"FD005": {"default": {"time": "2941", "energy": "705456764"}}}
{"FD001": {"default": {"time": "1398", "energy": "335111596"}}}
{"FD003": {"default": {"time": "597", "energy": "142857656"}}}
{"FD004": {"default": {"time": "4574", "energy": "1097420796"}}}
{"FD009": {"default": {"time": "1203", "energy": "288308524"}}}
{"FD010": {"default": {"time": "1075", "energy": "257585792"}}}
{"FD011": {"default": {"time": "855", "energy": "204782296"}}}
{"FD012": {"default": {"time": "2166", "energy": "519447372"}}}
{"FD014": {"default": {"time": "2092", "energy": "501685492"}}}
{"FD015": {"default": {"time": "1407", "energy": "337272816"}}}
{"FD016": {"default": {"time": "2371", "energy": "568650384"}}}
{"FD013": {"default": {"time": "1862", "energy": "446480992"}}}
{"FD017": {"default": {"time": "2130", "energy": "510805796"}}}
{"FD018": {"default": {"time": "2131", "energy": "511045804"}}}
{"FD020": {"default": {"time": "26363", "energy": "21353090716"}}}
{"FD024": {"default": {"time": "29975", "energy": "24278850980"}}}
{"FD022": {"default": {"time": "30067", "energy": "24353360348"}}}
{"FD023": {"default": {"time": "32375", "energy": "26222870180"}}}
{"FD021": {"default": {"time": "34699", "energy": "28105317404"}}}
{"FD019": {"default": {"time": "43939", "energy": "35589791324"}}}
{"FD028": {"default": {"time": "12457", "energy": "10088965608"}}}
{"FD026": {"default": {"time": "36835", "energy": "29835505860"}}}
{"FD027": {"default": {"time": "15057", "energy": "12194986408"}}}
{"FD025": {"default": {"time": "41591", "energy": "33687903908"}}}
{"FD030": {"default": {"time": "24907", "energy": "20173719068"}}}
{"FD032": {"default": {"time": "23941", "energy": "19391240728"}}}
{"FD029": {"default": {"time": "30107", "energy": "24385760668"}}}
{"FD031": {"default": {"time": "28565", "energy": "23136717720"}}}
{"FD034": {"default": {"time": "24677", "energy": "19987417228"}}}
{"FD036": {"default": {"time": "25185", "energy": "20398901292"}}}
{"FD033": {"default": {"time": "26226", "energy": "21242119620"}}}
{"FD035": {"default": {"time": "29309", "energy": "23739374284"}}}
{"FD037": {"default": {"time": "24380", "energy": "19746844852"}}}
{"FD038": {"default": {"time": "29068", "energy": "23544173724"}}}
{"FD039": {"default": {"time": "27479", "energy": "22257071012"}}}
{"FD040": {"default": {"time": "27769", "energy": "22491930912"}}}
{"FD041": {"default": {"time": "31452", "energy": "25475190376"}}}
{"FD043": {"default": {"time": "23962", "energy": "46004019360"}}}
{"FD047": {"default": {"time": "9738", "energy": "18693701080"}}}
{"FD048": {"default": {"time": "15979", "energy": "30676544508"}}}
{"FD042": {"default": {"time": "59511", "energy": "114258767492"}}}
{"FD045": {"default": {"time": "53288", "energy": "102310490648"}}}
{"FD044": {"default": {"time": "60439", "energy": "116040432940"}}}
{"FD051": {"default": {"time": "20315", "energy": "39001741700"}}}
{"FD046": {"default": {"time": "58516", "energy": "112348292472"}}}
{"FD054": {"default": {"time": "808", "energy": "1547918452"}}}
{"FD049": {"default": {"time": "47990", "energy": "92138274740"}}}
{"FD052": {"default": {"time": "40494", "energy": "77745762668"}}}
{"FD053": {"default": {"time": "38947", "energy": "74775470952"}}}
{"FD055": {"default": {"time": "21314", "energy": "40919830672"}}}
{"FD056": {"default": {"time": "21153", "energy": "40610702748"}}}
{"FD050": {"default": {"time": "108249", "energy": "207836258824"}}}
{"FD061": {"default": {"time": "59272", "energy": "384072117000"}}}
{"FD057": {"default": {"time": "101338", "energy": "380012803296"}}}
{"FD059": {"default": {"time": "92081", "energy": "345298778424"}}}
{"FD058": {"default": {"time": "111217", "energy": "417059217112"}}}
{"FD062": {"default": {"time": "72624", "energy": "470593276552"}}}
{"FD063": {"default": {"time": "51595", "energy": "334324797020"}}}
{"FD060": {"default": {"time": "127665", "energy": "478739505888"}}}
{"FD064": {"default": {"time": "91338", "energy": "591860405964"}}}
{"FD066": {"default": {"time": "77746", "energy": "503783967380"}}}
{"FD068": {"default": {"time": "62603", "energy": "405656914336"}}}
{"FD071": {"default": {"time": "49386", "energy": "320010601532"}}}
{"FD070": {"default": {"time": "65434", "energy": "424001740852"}}}
{"FD067": {"default": {"time": "120121", "energy": "778374741668"}}}
{"FD072": {"default": {"time": "68779", "energy": "445677609644"}}}
{"FD069": {"default": {"time": "126800", "energy": "821654717480"}}}
{"FD077": {"default": {"time": "42923", "energy": "278130110104"}}}
{"FD073": {"default": {"time": "100101", "energy": "648644725896"}}}
{"FD065": {"default": {"time": "178852", "energy": "1158952160536"}}}
{"FD074": {"default": {"time": "138760", "energy": "899155449108"}}}
{"FD078": {"default": {"time": "89287", "energy": "918746345184"}}}
{"FD076": {"default": {"time": "152870", "energy": "990588610516"}}}
{"FD080": {"default": {"time": "84013", "energy": "864476881212"}}}
{"FD079": {"default": {"time": "115148", "energy": "1184856640316"}}}
{"FD075": {"default": {"time": "210231", "energy": "1362289112908"}}}
{"FD087": {"default": {"time": "15140", "energy": "232523018000"}}}
{"FD086": {"default": {"time": "39926", "energy": "613236469896"}}}
{"FD088": {"default": {"time": "11635", "energy": "178686151740"}}}
{"FD083": {"default": {"time": "102901", "energy": "1058834905424"}}}
{"FD081": {"default": {"time": "140185", "energy": "1442487507248"}}}
{"FD082": {"default": {"time": "166048", "energy": "1708618441448"}}}
{"FD084": {"default": {"time": "188151", "energy": "1936059202328"}}}
{"FD089": {"default": {"time": "122392", "energy": "1879915616560"}}}
{"FD095": {"default": {"time": "46100", "energy": "708069211032"}}}
{"FD091": {"default": {"time": "109117", "energy": "1676011298484"}}}
{"FD093": {"default": {"time": "143437", "energy": "2203167629704"}}}
{"FD092": {"default": {"time": "134191", "energy": "2061148301896"}}}
{"FD094": {"default": {"time": "250380", "energy": "3845814581352"}}}
{"FD085": {"default": {"time": "382002", "energy": "5867530192980"}}}
{"FD097": {"default": {"time": "197068", "energy": "3026940925136"}}}
{"FD101": {"default": {"time": "58919", "energy": "904969370836"}}}
{"FD100": {"default": {"time": "153111", "energy": "2351760357932"}}}
{"FD098": {"default": {"time": "212094", "energy": "3257740360432"}}}
{"FD102": {"default": {"time": "107399", "energy": "1649623130212"}}}
{"FD099": {"default": {"time": "399124", "energy": "6130525358140"}}}
{"FD103": {"default": {"time": "454266", "energy": "6977507327376"}}}
{"FD096": {"default": {"time": "418796", "energy": "6432687203480"}}}
{"FD107": {"default": {"time": "333555", "energy": "7294815152444"}}}
{"FD090": {"default": {"time": "731604", "energy": "11237422289744"}}}
{"FD106": {"default": {"time": "702429", "energy": "15362096660364"}}}
{"FD104": {"default": {"time": "691693", "energy": "12743558723240"}}}
{"FD113": {"default": {"time": "69850", "energy": "2095447435740"}}}
{"FD110": {"default": {"time": "389624", "energy": "8521044528600"}}}
{"FD109": {"default": {"time": "530099", "energy": "11593236603840"}}}
{"FD111": {"default": {"time": "406257", "energy": "8884809137884"}}}
{"FD114": {"default": {"time": "35105", "energy": "1053096674668"}}}
{"FD112": {"default": {"time": "175966", "energy": "5278929142616"}}}
{"FD108": {"default": {"time": "633441", "energy": "13853326749740"}}}
{"FD118": {"default": {"time": "97198", "energy": "2915887691540"}}}
{"FD121": {"default": {"time": "136175", "energy": "4085198449340"}}}
{"FD119": {"default": {"time": "252624", "energy": "7578670630376"}}}
{"FD124": {"default": {"time": "9665", "energy": "289896196580"}}}
{"FD122": {"default": {"time": "254279", "energy": "7628320898920"}}}
{"FD105": {"default": {"time": "903134", "energy": "16639096538518"}}}
{"FD120": {"default": {"time": "557392", "energy": "16721716908384"}}}
{"FD127": {"default": {"time": "227552", "energy": "6826510646912"}}}
{"FD126": {"default": {"time": "329827", "energy": "9894762416916"}}}
{"FD125": {"default": {"time": "570095", "energy": "17102808280340"}}}
{"FD116": {"default": {"time": "855961", "energy": "25678792762188"}}}
{"FD128": {"default": {"time": "376863", "energy": "11305843339176"}}}
{"FD129": {"default": {"time": "296682", "energy": "8900411966200"}}}
{"FD130": {"default": {"time": "492219", "energy": "14766526193436"}}}
{"FD131": {"default": {"time": "506447", "energy": "15193366691812"}}}
{"FD134": {"default": {"time": "240181", "energy": "7205381127316"}}}
{"FD132": {"default": {"time": "300533", "energy": "9015942164280"}}}
{"FD133": {"default": {"time": "298920", "energy": "8967552060852"}}}
{"FD135": {"default": {"time": "173231", "energy": "5196879502292"}}}
{"FD140": {"default": {"time": "249850", "energy": "12952135891576"}}}
{"FD136": {"default": {"time": "553399", "energy": "16601927690344"}}}
{"FD123": {"default": {"time": "1262978", "energy": "37889307950996"}}}
{"FD142": {"default": {"time": "68501", "energy": "3550999732392"}}}
{"FD115": {"default": {"time": "1454785", "energy": "43643520816432"}}}
{"FD141": {"default": {"time": "424405", "energy": "22001070639172"}}}
{"FD139": {"default": {"time": "842390", "energy": "43669420604304"}}}
{"FD117": {"default": {"time": "774899", "energy": "23246931420132"}}}
{"FD137": {"default": {"time": "1400784", "energy": "72616578991876"}}}
{"FD143": {"default": {"time": "417728", "energy": "21654933260224"}}}
{"FD138": {"default": {"time": "1529062", "energy": "79266513515712"}}}
{"FD146": {"default": {"time": "526950", "energy": "27317005366120"}}}
{"FD147": {"default": {"time": "482902", "energy": "25033556357960"}}}
{"FD145": {"default": {"time": "1083579", "energy": "56172665255556"}}}
{"FD153": {"default": {"time": "245227", "energy": "12712478669308"}}}
{"FD150": {"default": {"time": "532022", "energy": "27579937692376"}}}
{"FD151": {"default": {"time": "531405", "energy": "27547952684444"}}}
{"FD148": {"default": {"time": "898864", "energy": "46597035998484"}}}
{"FD155": {"default": {"time": "137980", "energy": "7152792659052"}}}
{"FD149": {"default": {"time": "767171", "energy": "39770066371280"}}}
{"FD156": {"default": {"time": "217825", "energy": "11291958918800"}}}
{"FD159": {"default": {"time": "206676", "energy": "17013424097532"}}}
{"FD154": {"default": {"time": "562568", "energy": "29163442712544"}}}
{"FD158": {"default": {"time": "594323", "energy": "39171722209580"}}}
{"FD152": {"default": {"time": "1014046", "energy": "52568070749240"}}}
{"FD161": {"default": {"time": "462788", "energy": "38096568623076"}}}
{"FD160": {"default": {"time": "524261", "energy": "43157027384664"}}}
{"FD157": {"default": {"time": "958170", "energy": "63152885621012"}}}
{"FD144": {"default": {"time": "1595388", "energy": "82704845951344"}}}
{"FD166": {"default": {"time": "496430", "energy": "61001105898980"}}}
{"FD168": {"default": {"time": "375964", "energy": "46198242235668"}}}
{"FD171": {"default": {"time": "462386", "energy": "56817780080864"}}}
{"FD162": {"default": {"time": "1380983", "energy": "113682400854004"}}}
{"FD167": {"default": {"time": "1115743", "energy": "137102296956884"}}}
{"FD169": {"default": {"time": "1171332", "energy": "143933076957360"}}}
{"FD165": {"default": {"time": "2134729", "energy": "216141172922448"}}}
{"FD172": {"default": {"time": "705385", "energy": "86677501758768"}}}
{"FD163": {"default": {"time": "2540169", "energy": "209106615956332"}}}
{"FD170": {"default": {"time": "1295966", "energy": "159248104898028"}}}
{"FD164": {"default": {"time": "2978809", "energy": "301604291413584"}}}
{"FD177": {"default": {"time": "834611", "energy": "146023240520008"}}}
{"FD176": {"default": {"time": "1789371", "energy": "313068070904144"}}}
{"FD179": {"default": {"time": "4351379", "energy": "761317046489372"}}}
{"FD182": {"default": {"time": "3067748", "energy": "736259152479260"}}}
{"FD183": {"default": {"time": "2295619", "energy": "550948171366300"}}}
{"FD185": {"default": {"time": "2017420", "energy": "484180408120164"}}}
{"FD178": {"default": {"time": "5613413", "energy": "982122518611904"}}}
{"FD174": {"default": {"time": "1439582", "energy": "251868980514048"}}}
{"FD175": {"default": {"time": "2277407", "energy": "398454855926960"}}}
{"FD173": {"default": {"time": "5866235", "energy": "1026356285673812"}}}
{"FD183": {"default": {"time": "2295619", "energy": "550948171366300"}}}
