[
    {
        "problem_id": "FA001",
        "name": "default",
        "submit_time": "0",
        "energy": 335123860,
        "score": 0,
        "R": 20
    },
    {
        "problem_id": "FA002",
        "name": "default",
        "submit_time": "0",
        "energy": 165905180,
        "score": 0,
        "R": 20
    },
    {
        "problem_id": "FA003",
        "name": "default",
        "submit_time": "0",
        "energy": 142863608,
        "score": 0,
        "R": 20
    },
    {
        "problem_id": "FA004",
        "name": "default",
        "submit_time": "0",
        "energy": 1097434212,
        "score": 0,
        "R": 20
    },
    {
        "problem_id": "FA005",
        "name": "default",
        "submit_time": "0",
        "energy": 705484076,
        "score": 0,
        "R": 20
    },
    {
        "problem_id": "FA006",
        "name": "default",
        "submit_time": "0",
        "energy": 758284976,
        "score": 0,
        "R": 20
    },
    {
        "problem_id": "FA007",
        "name": "default",
        "submit_time": "0",
        "energy": 1528766296,
        "score": 0,
        "R": 20
    },
    {
        "problem_id": "FA008",
        "name": "default",
        "submit_time": "0",
        "energy": 1185055212,
        "score": 0,
        "R": 20
    },
    {
        "problem_id": "FA009",
        "name": "default",
        "submit_time": "0",
        "energy": 288318700,
        "score": 0,
        "R": 20
    },
    {
        "problem_id": "FA010",
        "name": "default",
        "submit_time": "0",
        "energy": 257595824,
        "score": 0,
        "R": 20
    },
    {
        "problem_id": "FA011",
        "name": "default",
        "submit_time": "0",
        "energy": 204790024,
        "score": 0,
        "R": 20
    },
    {
        "problem_id": "FA012",
        "name": "default",
        "submit_time": "0",
        "energy": 519461556,
        "score": 0,
        "R": 20
    },
    {
        "problem_id": "FA013",
        "name": "default",
        "submit_time": "0",
        "energy": 446494648,
        "score": 0,
        "R": 20
    },
    {
        "problem_id": "FA014",
        "name": "default",
        "submit_time": "0",
        "energy": 501700108,
        "score": 0,
        "R": 20
    },
    {
        "problem_id": "FA015",
        "name": "default",
        "submit_time": "0",
        "energy": 337283328,
        "score": 0,
        "R": 20
    },
    {
        "problem_id": "FA016",
        "name": "default",
        "submit_time": "0",
        "energy": 568667136,
        "score": 0,
        "R": 20
    },
    {
        "problem_id": "FA017",
        "name": "default",
        "submit_time": "0",
        "energy": 510821324,
        "score": 0,
        "R": 20
    },
    {
        "problem_id": "FA018",
        "name": "default",
        "submit_time": "0",
        "energy": 511061356,
        "score": 0,
        "R": 20
    },
    {
        "problem_id": "FA019",
        "name": "default",
        "submit_time": "0",
        "energy": 35590318172,
        "score": 0,
        "R": 30
    },
    {
        "problem_id": "FA020",
        "name": "default",
        "submit_time": "0",
        "energy": 21353195740,
        "score": 0,
        "R": 30
    },
    {
        "problem_id": "FA021",
        "name": "default",
        "submit_time": "0",
        "energy": 28105622492,
        "score": 0,
        "R": 30
    },
    {
        "problem_id": "FA022",
        "name": "default",
        "submit_time": "0",
        "energy": 24353554268,
        "score": 0,
        "R": 30
    },
    {
        "problem_id": "FA023",
        "name": "default",
        "submit_time": "0",
        "energy": 26223100004,
        "score": 0,
        "R": 30
    },
    {
        "problem_id": "FA024",
        "name": "default",
        "submit_time": "0",
        "energy": 24279023204,
        "score": 0,
        "R": 30
    },
    {
        "problem_id": "FA025",
        "name": "default",
        "submit_time": "0",
        "energy": 33688354916,
        "score": 0,
        "R": 30
    },
    {
        "problem_id": "FA026",
        "name": "default",
        "submit_time": "0",
        "energy": 29835842724,
        "score": 0,
        "R": 30
    },
    {
        "problem_id": "FA027",
        "name": "default",
        "submit_time": "0",
        "energy": 12195083848,
        "score": 0,
        "R": 30
    },
    {
        "problem_id": "FA028",
        "name": "default",
        "submit_time": "0",
        "energy": 10089000648,
        "score": 0,
        "R": 30
    },
    {
        "problem_id": "FA029",
        "name": "default",
        "submit_time": "0",
        "energy": 24385955548,
        "score": 0,
        "R": 30
    },
    {
        "problem_id": "FA030",
        "name": "default",
        "submit_time": "0",
        "energy": 20173789148,
        "score": 0,
        "R": 30
    },
    {
        "problem_id": "FA031",
        "name": "default",
        "submit_time": "0",
        "energy": 23136893784,
        "score": 0,
        "R": 30
    },
    {
        "problem_id": "FA032",
        "name": "default",
        "submit_time": "0",
        "energy": 19391305816,
        "score": 0,
        "R": 30
    },
    {
        "problem_id": "FA033",
        "name": "default",
        "submit_time": "0",
        "energy": 21242221356,
        "score": 0,
        "R": 30
    },
    {
        "problem_id": "FA034",
        "name": "default",
        "submit_time": "0",
        "energy": 19987481788,
        "score": 0,
        "R": 30
    },
    {
        "problem_id": "FA035",
        "name": "default",
        "submit_time": "0",
        "energy": 23739550012,
        "score": 0,
        "R": 30
    },
    {
        "problem_id": "FA036",
        "name": "default",
        "submit_time": "0",
        "energy": 20398978044,
        "score": 0,
        "R": 30
    },
    {
        "problem_id": "FA037",
        "name": "default",
        "submit_time": "0",
        "energy": 19746902284,
        "score": 0,
        "R": 30
    },
    {
        "problem_id": "FA038",
        "name": "default",
        "submit_time": "0",
        "energy": 23544324180,
        "score": 0,
        "R": 30
    },
    {
        "problem_id": "FA039",
        "name": "default",
        "submit_time": "0",
        "energy": 22257183332,
        "score": 0,
        "R": 30
    },
    {
        "problem_id": "FA040",
        "name": "default",
        "submit_time": "0",
        "energy": 22492122912,
        "score": 0,
        "R": 30
    },
    {
        "problem_id": "FA041",
        "name": "default",
        "submit_time": "0",
        "energy": 25475470768,
        "score": 0,
        "R": 30
    },
    {
        "problem_id": "FA042",
        "name": "default",
        "submit_time": "0",
        "energy": 114259120196,
        "score": 0,
        "R": 40
    },
    {
        "problem_id": "FA043",
        "name": "default",
        "submit_time": "0",
        "energy": 46004176728,
        "score": 0,
        "R": 40
    },
    {
        "problem_id": "FA044",
        "name": "default",
        "submit_time": "0",
        "energy": 116040982732,
        "score": 0,
        "R": 40
    },
    {
        "problem_id": "FA045",
        "name": "default",
        "submit_time": "0",
        "energy": 102310808960,
        "score": 0,
        "R": 40
    },
    {
        "problem_id": "FA046",
        "name": "default",
        "submit_time": "0",
        "energy": 112348736256,
        "score": 0,
        "R": 40
    },
    {
        "problem_id": "FA047",
        "name": "default",
        "submit_time": "0",
        "energy": 18693730480,
        "score": 0,
        "R": 40
    },
    {
        "problem_id": "FA048",
        "name": "default",
        "submit_time": "0",
        "energy": 30676597692,
        "score": 0,
        "R": 40
    },
    {
        "problem_id": "FA049",
        "name": "default",
        "submit_time": "0",
        "energy": 92138489084,
        "score": 0,
        "R": 40
    },
    {
        "problem_id": "FA050",
        "name": "default",
        "submit_time": "0",
        "energy": 207837538792,
        "score": 0,
        "R": 40
    },
    {
        "problem_id": "FA051",
        "name": "default",
        "submit_time": "0",
        "energy": 39001826084,
        "score": 0,
        "R": 40
    },
    {
        "problem_id": "FA052",
        "name": "default",
        "submit_time": "0",
        "energy": 77746023572,
        "score": 0,
        "R": 40
    },
    {
        "problem_id": "FA053",
        "name": "default",
        "submit_time": "0",
        "energy": 74775762168,
        "score": 0,
        "R": 40
    },
    {
        "problem_id": "FA054",
        "name": "default",
        "submit_time": "0",
        "energy": 1547924140,
        "score": 0,
        "R": 40
    },
    {
        "problem_id": "FA055",
        "name": "default",
        "submit_time": "0",
        "energy": 40919937352,
        "score": 0,
        "R": 40
    },
    {
        "problem_id": "FA056",
        "name": "default",
        "submit_time": "0",
        "energy": 40610816940,
        "score": 0,
        "R": 40
    },
    {
        "problem_id": "FA057",
        "name": "default",
        "submit_time": "0",
        "energy": 380013105240,
        "score": 0,
        "R": 50
    },
    {
        "problem_id": "FA058",
        "name": "default",
        "submit_time": "0",
        "energy": 417059610808,
        "score": 0,
        "R": 50
    },
    {
        "problem_id": "FA059",
        "name": "default",
        "submit_time": "0",
        "energy": 345299202456,
        "score": 0,
        "R": 50
    },
    {
        "problem_id": "FA060",
        "name": "default",
        "submit_time": "0",
        "energy": 478740024864,
        "score": 0,
        "R": 50
    },
    {
        "problem_id": "FA061",
        "name": "default",
        "submit_time": "0",
        "energy": 384072259248,
        "score": 0,
        "R": 60
    },
    {
        "problem_id": "FA062",
        "name": "default",
        "submit_time": "0",
        "energy": 470593580272,
        "score": 0,
        "R": 60
    },
    {
        "problem_id": "FA063",
        "name": "default",
        "submit_time": "0",
        "energy": 334325266844,
        "score": 0,
        "R": 60
    },
    {
        "problem_id": "FA064",
        "name": "default",
        "submit_time": "0",
        "energy": 591860713620,
        "score": 0,
        "R": 60
    },
    {
        "problem_id": "FA065",
        "name": "default",
        "submit_time": "0",
        "energy": 1158953995168,
        "score": 0,
        "R": 60
    },
    {
        "problem_id": "FA066",
        "name": "default",
        "submit_time": "0",
        "energy": 503784239996,
        "score": 0,
        "R": 60
    },
    {
        "problem_id": "FA067",
        "name": "default",
        "submit_time": "0",
        "energy": 778375285076,
        "score": 0,
        "R": 60
    },
    {
        "problem_id": "FA068",
        "name": "default",
        "submit_time": "0",
        "energy": 405657323920,
        "score": 0,
        "R": 60
    },
    {
        "problem_id": "FA069",
        "name": "default",
        "submit_time": "0",
        "energy": 821655417104,
        "score": 0,
        "R": 60
    },
    {
        "problem_id": "FA070",
        "name": "default",
        "submit_time": "0",
        "energy": 424002348892,
        "score": 0,
        "R": 60
    },
    {
        "problem_id": "FA071",
        "name": "default",
        "submit_time": "0",
        "energy": 320010774596,
        "score": 0,
        "R": 60
    },
    {
        "problem_id": "FA072",
        "name": "default",
        "submit_time": "0",
        "energy": 445677883052,
        "score": 0,
        "R": 60
    },
    {
        "problem_id": "FA073",
        "name": "default",
        "submit_time": "0",
        "energy": 648645227016,
        "score": 0,
        "R": 60
    },
    {
        "problem_id": "FA074",
        "name": "default",
        "submit_time": "0",
        "energy": 899156717004,
        "score": 0,
        "R": 60
    },
    {
        "problem_id": "FA075",
        "name": "default",
        "submit_time": "0",
        "energy": 1362290361196,
        "score": 0,
        "R": 60
    },
    {
        "problem_id": "FA076",
        "name": "default",
        "submit_time": "0",
        "energy": 990589791004,
        "score": 0,
        "R": 60
    },
    {
        "problem_id": "FA077",
        "name": "default",
        "submit_time": "0",
        "energy": 278130470440,
        "score": 0,
        "R": 60
    },
    {
        "problem_id": "FA078",
        "name": "default",
        "submit_time": "0",
        "energy": 918746905968,
        "score": 0,
        "R": 70
    },
    {
        "problem_id": "FA079",
        "name": "default",
        "submit_time": "0",
        "energy": 1184857139060,
        "score": 0,
        "R": 70
    },
    {
        "problem_id": "FA080",
        "name": "default",
        "submit_time": "0",
        "energy": 864477249900,
        "score": 0,
        "R": 70
    },
    {
        "problem_id": "FA081",
        "name": "default",
        "submit_time": "0",
        "energy": 1442488715504,
        "score": 0,
        "R": 70
    },
    {
        "problem_id": "FA082",
        "name": "default",
        "submit_time": "0",
        "energy": 1708619486480,
        "score": 0,
        "R": 70
    },
    {
        "problem_id": "FA083",
        "name": "default",
        "submit_time": "0",
        "energy": 1058835122096,
        "score": 0,
        "R": 70
    },
    {
        "problem_id": "FA084",
        "name": "default",
        "submit_time": "0",
        "energy": 1936059553736,
        "score": 0,
        "R": 70
    },
    {
        "problem_id": "FA085",
        "name": "default",
        "submit_time": "0",
        "energy": 5867532392508,
        "score": 0,
        "R": 80
    },
    {
        "problem_id": "FA086",
        "name": "default",
        "submit_time": "0",
        "energy": 613236676416,
        "score": 0,
        "R": 80
    },
    {
        "problem_id": "FA087",
        "name": "default",
        "submit_time": "0",
        "energy": 232523132984,
        "score": 0,
        "R": 80
    },
    {
        "problem_id": "FA088",
        "name": "default",
        "submit_time": "0",
        "energy": 178686248124,
        "score": 0,
        "R": 80
    },
    {
        "problem_id": "FA089",
        "name": "default",
        "submit_time": "0",
        "energy": 1879916556088,
        "score": 0,
        "R": 80
    },
    {
        "problem_id": "FA090",
        "name": "default",
        "submit_time": "0",
        "energy": 11237428456952,
        "score": 0,
        "R": 80
    },
    {
        "problem_id": "FA091",
        "name": "default",
        "submit_time": "0",
        "energy": 1676012282628,
        "score": 0,
        "R": 80
    },
    {
        "problem_id": "FA092",
        "name": "default",
        "submit_time": "0",
        "energy": 2061149608696,
        "score": 0,
        "R": 80
    },
    {
        "problem_id": "FA093",
        "name": "default",
        "submit_time": "0",
        "energy": 2203167968968,
        "score": 0,
        "R": 80
    },
    {
        "problem_id": "FA094",
        "name": "default",
        "submit_time": "0",
        "energy": 3845814716784,
        "score": 0,
        "R": 80
    },
    {
        "problem_id": "FA095",
        "name": "default",
        "submit_time": "0",
        "energy": 708069477024,
        "score": 0,
        "R": 80
    },
    {
        "problem_id": "FA096",
        "name": "default",
        "submit_time": "0",
        "energy": 6432688784096,
        "score": 0,
        "R": 80
    },
    {
        "problem_id": "FA097",
        "name": "default",
        "submit_time": "0",
        "energy": 3026941340600,
        "score": 0,
        "R": 80
    },
    {
        "problem_id": "FA098",
        "name": "default",
        "submit_time": "0",
        "energy": 3257741213512,
        "score": 0,
        "R": 80
    },
    {
        "problem_id": "FA099",
        "name": "default",
        "submit_time": "0",
        "energy": 6130526068852,
        "score": 0,
        "R": 80
    },
    {
        "problem_id": "FA100",
        "name": "default",
        "submit_time": "0",
        "energy": 2351760910796,
        "score": 0,
        "R": 80
    },
    {
        "problem_id": "FA101",
        "name": "default",
        "submit_time": "0",
        "energy": 904969572052,
        "score": 0,
        "R": 80
    },
    {
        "problem_id": "FA102",
        "name": "default",
        "submit_time": "0",
        "energy": 1649623515172,
        "score": 0,
        "R": 80
    },
    {
        "problem_id": "FA103",
        "name": "default",
        "submit_time": "0",
        "energy": 6977508661896,
        "score": 0,
        "R": 80
    },
    {
        "problem_id": "FA104",
        "name": "default",
        "submit_time": "0",
        "energy": 12743562563240,
        "score": 0,
        "R": 85
    },
    {
        "problem_id": "FA105",
        "name": "default",
        "submit_time": "0",
        "energy": 16639105453102,
        "score": 0,
        "R": 85
    },
    {
        "problem_id": "FA106",
        "name": "default",
        "submit_time": "0",
        "energy": 15362099501052,
        "score": 0,
        "R": 90
    },
    {
        "problem_id": "FA107",
        "name": "default",
        "submit_time": "0",
        "energy": 7294816300604,
        "score": 0,
        "R": 90
    },
    {
        "problem_id": "FA108",
        "name": "default",
        "submit_time": "0",
        "energy": 13853331018236,
        "score": 0,
        "R": 90
    },
    {
        "problem_id": "FA109",
        "name": "default",
        "submit_time": "0",
        "energy": 11593238013552,
        "score": 0,
        "R": 90
    },
    {
        "problem_id": "FA110",
        "name": "default",
        "submit_time": "0",
        "energy": 8521047197952,
        "score": 0,
        "R": 90
    },
    {
        "problem_id": "FA111",
        "name": "default",
        "submit_time": "0",
        "energy": 8884810892908,
        "score": 0,
        "R": 90
    },
    {
        "problem_id": "FA112",
        "name": "default",
        "submit_time": "0",
        "energy": 5278930391696,
        "score": 0,
        "R": 100
    },
    {
        "problem_id": "FA113",
        "name": "default",
        "submit_time": "0",
        "energy": 2095447608804,
        "score": 0,
        "R": 100
    },
    {
        "problem_id": "FA114",
        "name": "default",
        "submit_time": "0",
        "energy": 1053096842044,
        "score": 0,
        "R": 100
    },
    {
        "problem_id": "FA115",
        "name": "default",
        "submit_time": "0",
        "energy": 43643533140144,
        "score": 0,
        "R": 100
    },
    {
        "problem_id": "FA116",
        "name": "default",
        "submit_time": "0",
        "energy": 25678796308956,
        "score": 0,
        "R": 100
    },
    {
        "problem_id": "FA117",
        "name": "default",
        "submit_time": "0",
        "energy": 23246934210372,
        "score": 0,
        "R": 100
    },
    {
        "problem_id": "FA118",
        "name": "default",
        "submit_time": "0",
        "energy": 2915888457500,
        "score": 0,
        "R": 100
    },
    {
        "problem_id": "FA119",
        "name": "default",
        "submit_time": "0",
        "energy": 7578672220112,
        "score": 0,
        "R": 100
    },
    {
        "problem_id": "FA120",
        "name": "default",
        "submit_time": "0",
        "energy": 16721719229928,
        "score": 0,
        "R": 100
    },
    {
        "problem_id": "FA121",
        "name": "default",
        "submit_time": "0",
        "energy": 4085199386204,
        "score": 0,
        "R": 100
    },
    {
        "problem_id": "FA122",
        "name": "default",
        "submit_time": "0",
        "energy": 7628322090712,
        "score": 0,
        "R": 100
    },
    {
        "problem_id": "FA123",
        "name": "default",
        "submit_time": "0",
        "energy": 37889317953020,
        "score": 0,
        "R": 100
    },
    {
        "problem_id": "FA124",
        "name": "default",
        "submit_time": "0",
        "energy": 289896224084,
        "score": 0,
        "R": 100
    },
    {
        "problem_id": "FA125",
        "name": "default",
        "submit_time": "0",
        "energy": 17102808729044,
        "score": 0,
        "R": 100
    },
    {
        "problem_id": "FA126",
        "name": "default",
        "submit_time": "0",
        "energy": 9894763855668,
        "score": 0,
        "R": 100
    },
    {
        "problem_id": "FA127",
        "name": "default",
        "submit_time": "0",
        "energy": 6826511262728,
        "score": 0,
        "R": 100
    },
    {
        "problem_id": "FA128",
        "name": "default",
        "submit_time": "0",
        "energy": 11305844970840,
        "score": 0,
        "R": 100
    },
    {
        "problem_id": "FA129",
        "name": "default",
        "submit_time": "0",
        "energy": 8900412927568,
        "score": 0,
        "R": 100
    },
    {
        "problem_id": "FA130",
        "name": "default",
        "submit_time": "0",
        "energy": 14766527282652,
        "score": 0,
        "R": 100
    },
    {
        "problem_id": "FA131",
        "name": "default",
        "submit_time": "0",
        "energy": 15193367463268,
        "score": 0,
        "R": 100
    },
    {
        "problem_id": "FA132",
        "name": "default",
        "submit_time": "0",
        "energy": 9015942931320,
        "score": 0,
        "R": 100
    },
    {
        "problem_id": "FA133",
        "name": "default",
        "submit_time": "0",
        "energy": 8967552944364,
        "score": 0,
        "R": 100
    },
    {
        "problem_id": "FA134",
        "name": "default",
        "submit_time": "0",
        "energy": 7205381395876,
        "score": 0,
        "R": 100
    },
    {
        "problem_id": "FA135",
        "name": "default",
        "submit_time": "0",
        "energy": 5196880031636,
        "score": 0,
        "R": 100
    },
    {
        "problem_id": "FA136",
        "name": "default",
        "submit_time": "0",
        "energy": 16601928520792,
        "score": 0,
        "R": 100
    },
    {
        "problem_id": "FA137",
        "name": "default",
        "submit_time": "0",
        "energy": 72616580831932,
        "score": 0,
        "R": 120
    },
    {
        "problem_id": "FA138",
        "name": "default",
        "submit_time": "0",
        "energy": 79266515044248,
        "score": 0,
        "R": 120
    },
    {
        "problem_id": "FA139",
        "name": "default",
        "submit_time": "0",
        "energy": 43669424403624,
        "score": 0,
        "R": 120
    },
    {
        "problem_id": "FA140",
        "name": "default",
        "submit_time": "0",
        "energy": 12952136394064,
        "score": 0,
        "R": 120
    },
    {
        "problem_id": "FA141",
        "name": "default",
        "submit_time": "0",
        "energy": 22001071643284,
        "score": 0,
        "R": 120
    },
    {
        "problem_id": "FA142",
        "name": "default",
        "submit_time": "0",
        "energy": 3551000251176,
        "score": 0,
        "R": 120
    },
    {
        "problem_id": "FA143",
        "name": "default",
        "submit_time": "0",
        "energy": 21654936925000,
        "score": 0,
        "R": 120
    },
    {
        "problem_id": "FA144",
        "name": "default",
        "submit_time": "0",
        "energy": 82704862674520,
        "score": 0,
        "R": 120
    },
    {
        "problem_id": "FA145",
        "name": "default",
        "submit_time": "0",
        "energy": 56172666337572,
        "score": 0,
        "R": 120
    },
    {
        "problem_id": "FA146",
        "name": "default",
        "submit_time": "0",
        "energy": 27317006934304,
        "score": 0,
        "R": 120
    },
    {
        "problem_id": "FA147",
        "name": "default",
        "submit_time": "0",
        "energy": 25033557444608,
        "score": 0,
        "R": 120
    },
    {
        "problem_id": "FA148",
        "name": "default",
        "submit_time": "0",
        "energy": 46597036383372,
        "score": 0,
        "R": 120
    },
    {
        "problem_id": "FA149",
        "name": "default",
        "submit_time": "0",
        "energy": 39770069516096,
        "score": 0,
        "R": 120
    },
    {
        "problem_id": "FA150",
        "name": "default",
        "submit_time": "0",
        "energy": 27579939715408,
        "score": 0,
        "R": 120
    },
    {
        "problem_id": "FA151",
        "name": "default",
        "submit_time": "0",
        "energy": 27547954217804,
        "score": 0,
        "R": 120
    },
    {
        "problem_id": "FA152",
        "name": "default",
        "submit_time": "0",
        "energy": 52568075699696,
        "score": 0,
        "R": 120
    },
    {
        "problem_id": "FA153",
        "name": "default",
        "submit_time": "0",
        "energy": 12712480544188,
        "score": 0,
        "R": 120
    },
    {
        "problem_id": "FA154",
        "name": "default",
        "submit_time": "0",
        "energy": 29163445235880,
        "score": 0,
        "R": 120
    },
    {
        "problem_id": "FA155",
        "name": "default",
        "submit_time": "0",
        "energy": 7152793112484,
        "score": 0,
        "R": 120
    },
    {
        "problem_id": "FA156",
        "name": "default",
        "submit_time": "0",
        "energy": 11291959881104,
        "score": 0,
        "R": 120
    },
    {
        "problem_id": "FA157",
        "name": "default",
        "submit_time": "0",
        "energy": 63152888227964,
        "score": 0,
        "R": 130
    },
    {
        "problem_id": "FA158",
        "name": "default",
        "submit_time": "0",
        "energy": 39171724193900,
        "score": 0,
        "R": 130
    },
    {
        "problem_id": "FA159",
        "name": "default",
        "submit_time": "0",
        "energy": 17013425114676,
        "score": 0,
        "R": 140
    },
    {
        "problem_id": "FA160",
        "name": "default",
        "submit_time": "0",
        "energy": 43157029944216,
        "score": 0,
        "R": 140
    },
    {
        "problem_id": "FA161",
        "name": "default",
        "submit_time": "0",
        "energy": 38096571266940,
        "score": 0,
        "R": 140
    },
    {
        "problem_id": "FA162",
        "name": "default",
        "submit_time": "0",
        "energy": 113682404131060,
        "score": 0,
        "R": 140
    },
    {
        "problem_id": "FA163",
        "name": "default",
        "submit_time": "0",
        "energy": 209106622524412,
        "score": 0,
        "R": 140
    },
    {
        "problem_id": "FA164",
        "name": "default",
        "submit_time": "0",
        "energy": 301604296762512,
        "score": 0,
        "R": 150
    },
    {
        "problem_id": "FA165",
        "name": "default",
        "submit_time": "0",
        "energy": 216141178136592,
        "score": 0,
        "R": 150
    },
    {
        "problem_id": "FA166",
        "name": "default",
        "submit_time": "0",
        "energy": 61001109736364,
        "score": 0,
        "R": 160
    },
    {
        "problem_id": "FA167",
        "name": "default",
        "submit_time": "0",
        "energy": 137102307663380,
        "score": 0,
        "R": 160
    },
    {
        "problem_id": "FA168",
        "name": "default",
        "submit_time": "0",
        "energy": 46198244244012,
        "score": 0,
        "R": 160
    },
    {
        "problem_id": "FA169",
        "name": "default",
        "submit_time": "0",
        "energy": 143933083450968,
        "score": 0,
        "R": 160
    },
    {
        "problem_id": "FA170",
        "name": "default",
        "submit_time": "0",
        "energy": 159248112628116,
        "score": 0,
        "R": 160
    },
    {
        "problem_id": "FA171",
        "name": "default",
        "submit_time": "0",
        "energy": 56817781088216,
        "score": 0,
        "R": 160
    },
    {
        "problem_id": "FA172",
        "name": "default",
        "submit_time": "0",
        "energy": 86677504117104,
        "score": 0,
        "R": 160
    },
    {
        "problem_id": "FA173",
        "name": "default",
        "submit_time": "0",
        "energy": 1026356292625844,
        "score": 0,
        "R": 180
    },
    {
        "problem_id": "FA174",
        "name": "default",
        "submit_time": "0",
        "energy": 251868985569048,
        "score": 0,
        "R": 180
    },
    {
        "problem_id": "FA175",
        "name": "default",
        "submit_time": "0",
        "energy": 398454869586368,
        "score": 0,
        "R": 180
    },
    {
        "problem_id": "FA176",
        "name": "default",
        "submit_time": "0",
        "energy": 313068077236736,
        "score": 0,
        "R": 180
    },
    {
        "problem_id": "FA177",
        "name": "default",
        "submit_time": "0",
        "energy": 146023246474456,
        "score": 0,
        "R": 180
    },
    {
        "problem_id": "FA178",
        "name": "default",
        "submit_time": "0",
        "energy": 982122567357920,
        "score": 0,
        "R": 180
    },
    {
        "problem_id": "FA179",
        "name": "default",
        "submit_time": "0",
        "energy": 761317053608732,
        "score": 0,
        "R": 180
    },
    {
        "problem_id": "FA180",
        "name": "default",
        "submit_time": "0",
        "energy": 751443710418548,
        "score": 0,
        "R": 180
    },
    {
        "problem_id": "FA181",
        "name": "default",
        "submit_time": "0",
        "energy": 1790478455250280,
        "score": 0,
        "R": 200
    },
    {
        "problem_id": "FA182",
        "name": "default",
        "submit_time": "0",
        "energy": 736259157641300,
        "score": 0,
        "R": 200
    },
    {
        "problem_id": "FA183",
        "name": "default",
        "submit_time": "0",
        "energy": 550948183601692,
        "score": 0,
        "R": 200
    },
    {
        "problem_id": "FA184",
        "name": "default",
        "submit_time": "0",
        "energy": 1503745149502116,
        "score": 0,
        "R": 200
    },
    {
        "problem_id": "FA185",
        "name": "default",
        "submit_time": "0",
        "energy": 484180415428284,
        "score": 0,
        "R": 200
    },
    {
        "problem_id": "FA186",
        "name": "default",
        "submit_time": "0",
        "energy": 1582339515307896,
        "score": 0,
        "R": 220
    },
    {
        "problem_id": "FD001",
        "name": "default",
        "submit_time": "0",
        "energy": 335111596,
        "score": 0,
        "R": 20
    },
    {
        "problem_id": "FD002",
        "name": "default",
        "submit_time": "0",
        "energy": 165900524,
        "score": 0,
        "R": 20
    },
    {
        "problem_id": "FD003",
        "name": "default",
        "submit_time": "0",
        "energy": 142857656,
        "score": 0,
        "R": 20
    },
    {
        "problem_id": "FD004",
        "name": "default",
        "submit_time": "0",
        "energy": 1097420796,
        "score": 0,
        "R": 20
    },
    {
        "problem_id": "FD005",
        "name": "default",
        "submit_time": "0",
        "energy": 705456764,
        "score": 0,
        "R": 20
    },
    {
        "problem_id": "FD006",
        "name": "default",
        "submit_time": "0",
        "energy": 758267120,
        "score": 0,
        "R": 20
    },
    {
        "problem_id": "FD007",
        "name": "default",
        "submit_time": "0",
        "energy": 1528722760,
        "score": 0,
        "R": 20
    },
    {
        "problem_id": "FD008",
        "name": "default",
        "submit_time": "0",
        "energy": 1185010668,
        "score": 0,
        "R": 20
    },
    {
        "problem_id": "FD009",
        "name": "default",
        "submit_time": "0",
        "energy": 288308524,
        "score": 0,
        "R": 20
    },
    {
        "problem_id": "FD010",
        "name": "default",
        "submit_time": "0",
        "energy": 257585792,
        "score": 0,
        "R": 20
    },
    {
        "problem_id": "FD011",
        "name": "default",
        "submit_time": "0",
        "energy": 204782296,
        "score": 0,
        "R": 20
    },
    {
        "problem_id": "FD012",
        "name": "default",
        "submit_time": "0",
        "energy": 519447372,
        "score": 0,
        "R": 20
    },
    {
        "problem_id": "FD013",
        "name": "default",
        "submit_time": "0",
        "energy": 446480992,
        "score": 0,
        "R": 20
    },
    {
        "problem_id": "FD014",
        "name": "default",
        "submit_time": "0",
        "energy": 501685492,
        "score": 0,
        "R": 20
    },
    {
        "problem_id": "FD015",
        "name": "default",
        "submit_time": "0",
        "energy": 337272816,
        "score": 0,
        "R": 20
    },
    {
        "problem_id": "FD016",
        "name": "default",
        "submit_time": "0",
        "energy": 568650384,
        "score": 0,
        "R": 20
    },
    {
        "problem_id": "FD017",
        "name": "default",
        "submit_time": "0",
        "energy": 510805796,
        "score": 0,
        "R": 20
    },
    {
        "problem_id": "FD018",
        "name": "default",
        "submit_time": "0",
        "energy": 511045804,
        "score": 0,
        "R": 20
    },
    {
        "problem_id": "FD019",
        "name": "default",
        "submit_time": "0",
        "energy": 35589791324,
        "score": 0,
        "R": 30
    },
    {
        "problem_id": "FD020",
        "name": "default",
        "submit_time": "0",
        "energy": 21353090716,
        "score": 0,
        "R": 30
    },
    {
        "problem_id": "FD021",
        "name": "default",
        "submit_time": "0",
        "energy": 28105317404,
        "score": 0,
        "R": 30
    },
    {
        "problem_id": "FD022",
        "name": "default",
        "submit_time": "0",
        "energy": 24353360348,
        "score": 0,
        "R": 30
    },
    {
        "problem_id": "FD023",
        "name": "default",
        "submit_time": "0",
        "energy": 26222870180,
        "score": 0,
        "R": 30
    },
    {
        "problem_id": "FD024",
        "name": "default",
        "submit_time": "0",
        "energy": 24278850980,
        "score": 0,
        "R": 30
    },
    {
        "problem_id": "FD025",
        "name": "default",
        "submit_time": "0",
        "energy": 33687903908,
        "score": 0,
        "R": 30
    },
    {
        "problem_id": "FD026",
        "name": "default",
        "submit_time": "0",
        "energy": 29835505860,
        "score": 0,
        "R": 30
    },
    {
        "problem_id": "FD027",
        "name": "default",
        "submit_time": "0",
        "energy": 12194986408,
        "score": 0,
        "R": 30
    },
    {
        "problem_id": "FD028",
        "name": "default",
        "submit_time": "0",
        "energy": 10088965608,
        "score": 0,
        "R": 30
    },
    {
        "problem_id": "FD029",
        "name": "default",
        "submit_time": "0",
        "energy": 24385760668,
        "score": 0,
        "R": 30
    },
    {
        "problem_id": "FD030",
        "name": "default",
        "submit_time": "0",
        "energy": 20173719068,
        "score": 0,
        "R": 30
    },
    {
        "problem_id": "FD031",
        "name": "default",
        "submit_time": "0",
        "energy": 23136717720,
        "score": 0,
        "R": 30
    },
    {
        "problem_id": "FD032",
        "name": "default",
        "submit_time": "0",
        "energy": 19391240728,
        "score": 0,
        "R": 30
    },
    {
        "problem_id": "FD033",
        "name": "default",
        "submit_time": "0",
        "energy": 21242119620,
        "score": 0,
        "R": 30
    },
    {
        "problem_id": "FD034",
        "name": "default",
        "submit_time": "0",
        "energy": 19987417228,
        "score": 0,
        "R": 30
    },
    {
        "problem_id": "FD035",
        "name": "default",
        "submit_time": "0",
        "energy": 23739374284,
        "score": 0,
        "R": 30
    },
    {
        "problem_id": "FD036",
        "name": "default",
        "submit_time": "0",
        "energy": 20398901292,
        "score": 0,
        "R": 30
    },
    {
        "problem_id": "FD037",
        "name": "default",
        "submit_time": "0",
        "energy": 19746844852,
        "score": 0,
        "R": 30
    },
    {
        "problem_id": "FD038",
        "name": "default",
        "submit_time": "0",
        "energy": 23544173724,
        "score": 0,
        "R": 30
    },
    {
        "problem_id": "FD039",
        "name": "default",
        "submit_time": "0",
        "energy": 22257071012,
        "score": 0,
        "R": 30
    },
    {
        "problem_id": "FD040",
        "name": "default",
        "submit_time": "0",
        "energy": 22491930912,
        "score": 0,
        "R": 30
    },
    {
        "problem_id": "FD041",
        "name": "default",
        "submit_time": "0",
        "energy": 25475190376,
        "score": 0,
        "R": 30
    },
    {
        "problem_id": "FD042",
        "name": "default",
        "submit_time": "0",
        "energy": 114258767492,
        "score": 0,
        "R": 40
    },
    {
        "problem_id": "FD043",
        "name": "default",
        "submit_time": "0",
        "energy": 46004019360,
        "score": 0,
        "R": 40
    },
    {
        "problem_id": "FD044",
        "name": "default",
        "submit_time": "0",
        "energy": 116040432940,
        "score": 0,
        "R": 40
    },
    {
        "problem_id": "FD045",
        "name": "default",
        "submit_time": "0",
        "energy": 102310490648,
        "score": 0,
        "R": 40
    },
    {
        "problem_id": "FD046",
        "name": "default",
        "submit_time": "0",
        "energy": 112348292472,
        "score": 0,
        "R": 40
    },
    {
        "problem_id": "FD047",
        "name": "default",
        "submit_time": "0",
        "energy": 18693701080,
        "score": 0,
        "R": 40
    },
    {
        "problem_id": "FD048",
        "name": "default",
        "submit_time": "0",
        "energy": 30676544508,
        "score": 0,
        "R": 40
    },
    {
        "problem_id": "FD049",
        "name": "default",
        "submit_time": "0",
        "energy": 92138274740,
        "score": 0,
        "R": 40
    },
    {
        "problem_id": "FD050",
        "name": "default",
        "submit_time": "0",
        "energy": 207836258824,
        "score": 0,
        "R": 40
    },
    {
        "problem_id": "FD051",
        "name": "default",
        "submit_time": "0",
        "energy": 39001741700,
        "score": 0,
        "R": 40
    },
    {
        "problem_id": "FD052",
        "name": "default",
        "submit_time": "0",
        "energy": 77745762668,
        "score": 0,
        "R": 40
    },
    {
        "problem_id": "FD053",
        "name": "default",
        "submit_time": "0",
        "energy": 74775470952,
        "score": 0,
        "R": 40
    },
    {
        "problem_id": "FD054",
        "name": "default",
        "submit_time": "0",
        "energy": 1547918452,
        "score": 0,
        "R": 40
    },
    {
        "problem_id": "FD055",
        "name": "default",
        "submit_time": "0",
        "energy": 40919830672,
        "score": 0,
        "R": 40
    },
    {
        "problem_id": "FD056",
        "name": "default",
        "submit_time": "0",
        "energy": 40610702748,
        "score": 0,
        "R": 40
    },
    {
        "problem_id": "FD057",
        "name": "default",
        "submit_time": "0",
        "energy": 380012803296,
        "score": 0,
        "R": 50
    },
    {
        "problem_id": "FD058",
        "name": "default",
        "submit_time": "0",
        "energy": 417059217112,
        "score": 0,
        "R": 50
    },
    {
        "problem_id": "FD059",
        "name": "default",
        "submit_time": "0",
        "energy": 345298778424,
        "score": 0,
        "R": 50
    },
    {
        "problem_id": "FD060",
        "name": "default",
        "submit_time": "0",
        "energy": 478739505888,
        "score": 0,
        "R": 50
    },
    {
        "problem_id": "FD061",
        "name": "default",
        "submit_time": "0",
        "energy": 384072117000,
        "score": 0,
        "R": 60
    },
    {
        "problem_id": "FD062",
        "name": "default",
        "submit_time": "0",
        "energy": 470593276552,
        "score": 0,
        "R": 60
    },
    {
        "problem_id": "FD063",
        "name": "default",
        "submit_time": "0",
        "energy": 334324797020,
        "score": 0,
        "R": 60
    },
    {
        "problem_id": "FD064",
        "name": "default",
        "submit_time": "0",
        "energy": 591860405964,
        "score": 0,
        "R": 60
    },
    {
        "problem_id": "FD065",
        "name": "default",
        "submit_time": "0",
        "energy": 1158952160536,
        "score": 0,
        "R": 60
    },
    {
        "problem_id": "FD066",
        "name": "default",
        "submit_time": "0",
        "energy": 503783967380,
        "score": 0,
        "R": 60
    },
    {
        "problem_id": "FD067",
        "name": "default",
        "submit_time": "0",
        "energy": 778374741668,
        "score": 0,
        "R": 60
    },
    {
        "problem_id": "FD068",
        "name": "default",
        "submit_time": "0",
        "energy": 405656914336,
        "score": 0,
        "R": 60
    },
    {
        "problem_id": "FD069",
        "name": "default",
        "submit_time": "0",
        "energy": 821654717480,
        "score": 0,
        "R": 60
    },
    {
        "problem_id": "FD070",
        "name": "default",
        "submit_time": "0",
        "energy": 424001740852,
        "score": 0,
        "R": 60
    },
    {
        "problem_id": "FD071",
        "name": "default",
        "submit_time": "0",
        "energy": 320010601532,
        "score": 0,
        "R": 60
    },
    {
        "problem_id": "FD072",
        "name": "default",
        "submit_time": "0",
        "energy": 445677609644,
        "score": 0,
        "R": 60
    },
    {
        "problem_id": "FD073",
        "name": "default",
        "submit_time": "0",
        "energy": 648644725896,
        "score": 0,
        "R": 60
    },
    {
        "problem_id": "FD074",
        "name": "default",
        "submit_time": "0",
        "energy": 899155449108,
        "score": 0,
        "R": 60
    },
    {
        "problem_id": "FD075",
        "name": "default",
        "submit_time": "0",
        "energy": 1362289112908,
        "score": 0,
        "R": 60
    },
    {
        "problem_id": "FD076",
        "name": "default",
        "submit_time": "0",
        "energy": 990588610516,
        "score": 0,
        "R": 60
    },
    {
        "problem_id": "FD077",
        "name": "default",
        "submit_time": "0",
        "energy": 278130110104,
        "score": 0,
        "R": 60
    },
    {
        "problem_id": "FD078",
        "name": "default",
        "submit_time": "0",
        "energy": 918746345184,
        "score": 0,
        "R": 70
    },
    {
        "problem_id": "FD079",
        "name": "default",
        "submit_time": "0",
        "energy": 1184856640316,
        "score": 0,
        "R": 70
    },
    {
        "problem_id": "FD080",
        "name": "default",
        "submit_time": "0",
        "energy": 864476881212,
        "score": 0,
        "R": 70
    },
    {
        "problem_id": "FD081",
        "name": "default",
        "submit_time": "0",
        "energy": 1442487507248,
        "score": 0,
        "R": 70
    },
    {
        "problem_id": "FD082",
        "name": "default",
        "submit_time": "0",
        "energy": 1708618441448,
        "score": 0,
        "R": 70
    },
    {
        "problem_id": "FD083",
        "name": "default",
        "submit_time": "0",
        "energy": 1058834905424,
        "score": 0,
        "R": 70
    },
    {
        "problem_id": "FD084",
        "name": "default",
        "submit_time": "0",
        "energy": 1936059202328,
        "score": 0,
        "R": 70
    },
    {
        "problem_id": "FD085",
        "name": "default",
        "submit_time": "0",
        "energy": 5867530192980,
        "score": 0,
        "R": 80
    },
    {
        "problem_id": "FD086",
        "name": "default",
        "submit_time": "0",
        "energy": 613236469896,
        "score": 0,
        "R": 80
    },
    {
        "problem_id": "FD087",
        "name": "default",
        "submit_time": "0",
        "energy": 232523018000,
        "score": 0,
        "R": 80
    },
    {
        "problem_id": "FD088",
        "name": "default",
        "submit_time": "0",
        "energy": 178686151740,
        "score": 0,
        "R": 80
    },
    {
        "problem_id": "FD089",
        "name": "default",
        "submit_time": "0",
        "energy": 1879915616560,
        "score": 0,
        "R": 80
    },
    {
        "problem_id": "FD090",
        "name": "default",
        "submit_time": "0",
        "energy": 11237422289744,
        "score": 0,
        "R": 80
    },
    {
        "problem_id": "FD091",
        "name": "default",
        "submit_time": "0",
        "energy": 1676011298484,
        "score": 0,
        "R": 80
    },
    {
        "problem_id": "FD092",
        "name": "default",
        "submit_time": "0",
        "energy": 2061148301896,
        "score": 0,
        "R": 80
    },
    {
        "problem_id": "FD093",
        "name": "default",
        "submit_time": "0",
        "energy": 2203167629704,
        "score": 0,
        "R": 80
    },
    {
        "problem_id": "FD094",
        "name": "default",
        "submit_time": "0",
        "energy": 3845814581352,
        "score": 0,
        "R": 80
    },
    {
        "problem_id": "FD095",
        "name": "default",
        "submit_time": "0",
        "energy": 708069211032,
        "score": 0,
        "R": 80
    },
    {
        "problem_id": "FD096",
        "name": "default",
        "submit_time": "0",
        "energy": 6432687203480,
        "score": 0,
        "R": 80
    },
    {
        "problem_id": "FD097",
        "name": "default",
        "submit_time": "0",
        "energy": 3026940925136,
        "score": 0,
        "R": 80
    },
    {
        "problem_id": "FD098",
        "name": "default",
        "submit_time": "0",
        "energy": 3257740360432,
        "score": 0,
        "R": 80
    },
    {
        "problem_id": "FD099",
        "name": "default",
        "submit_time": "0",
        "energy": 6130525358140,
        "score": 0,
        "R": 80
    },
    {
        "problem_id": "FD100",
        "name": "default",
        "submit_time": "0",
        "energy": 2351760357932,
        "score": 0,
        "R": 80
    },
    {
        "problem_id": "FD101",
        "name": "default",
        "submit_time": "0",
        "energy": 904969370836,
        "score": 0,
        "R": 80
    },
    {
        "problem_id": "FD102",
        "name": "default",
        "submit_time": "0",
        "energy": 1649623130212,
        "score": 0,
        "R": 80
    },
    {
        "problem_id": "FD103",
        "name": "default",
        "submit_time": "0",
        "energy": 6977507327376,
        "score": 0,
        "R": 80
    },
    {
        "problem_id": "FD104",
        "name": "default",
        "submit_time": "0",
        "energy": 12743558723240,
        "score": 0,
        "R": 85
    },
    {
        "problem_id": "FD105",
        "name": "default",
        "submit_time": "0",
        "energy": 16639096538518,
        "score": 0,
        "R": 85
    },
    {
        "problem_id": "FD106",
        "name": "default",
        "submit_time": "0",
        "energy": 15362096660364,
        "score": 0,
        "R": 90
    },
    {
        "problem_id": "FD107",
        "name": "default",
        "submit_time": "0",
        "energy": 7294815152444,
        "score": 0,
        "R": 90
    },
    {
        "problem_id": "FD108",
        "name": "default",
        "submit_time": "0",
        "energy": 13853326749740,
        "score": 0,
        "R": 90
    },
    {
        "problem_id": "FD109",
        "name": "default",
        "submit_time": "0",
        "energy": 11593236603840,
        "score": 0,
        "R": 90
    },
    {
        "problem_id": "FD110",
        "name": "default",
        "submit_time": "0",
        "energy": 8521044528600,
        "score": 0,
        "R": 90
    },
    {
        "problem_id": "FD111",
        "name": "default",
        "submit_time": "0",
        "energy": 8884809137884,
        "score": 0,
        "R": 90
    },
    {
        "problem_id": "FD112",
        "name": "default",
        "submit_time": "0",
        "energy": 5278929142616,
        "score": 0,
        "R": 100
    },
    {
        "problem_id": "FD113",
        "name": "default",
        "submit_time": "0",
        "energy": 2095447435740,
        "score": 0,
        "R": 100
    },
    {
        "problem_id": "FD114",
        "name": "default",
        "submit_time": "0",
        "energy": 1053096674668,
        "score": 0,
        "R": 100
    },
    {
        "problem_id": "FD115",
        "name": "default",
        "submit_time": "0",
        "energy": 43643520816432,
        "score": 0,
        "R": 100
    },
    {
        "problem_id": "FD116",
        "name": "default",
        "submit_time": "0",
        "energy": 25678792762188,
        "score": 0,
        "R": 100
    },
    {
        "problem_id": "FD117",
        "name": "default",
        "submit_time": "0",
        "energy": 23246931420132,
        "score": 0,
        "R": 100
    },
    {
        "problem_id": "FD118",
        "name": "default",
        "submit_time": "0",
        "energy": 2915887691540,
        "score": 0,
        "R": 100
    },
    {
        "problem_id": "FD119",
        "name": "default",
        "submit_time": "0",
        "energy": 7578670630376,
        "score": 0,
        "R": 100
    },
    {
        "problem_id": "FD120",
        "name": "default",
        "submit_time": "0",
        "energy": 16721716908384,
        "score": 0,
        "R": 100
    },
    {
        "problem_id": "FD121",
        "name": "default",
        "submit_time": "0",
        "energy": 4085198449340,
        "score": 0,
        "R": 100
    },
    {
        "problem_id": "FD122",
        "name": "default",
        "submit_time": "0",
        "energy": 7628320898920,
        "score": 0,
        "R": 100
    },
    {
        "problem_id": "FD123",
        "name": "default",
        "submit_time": "0",
        "energy": 37889307950996,
        "score": 0,
        "R": 100
    },
    {
        "problem_id": "FD124",
        "name": "default",
        "submit_time": "0",
        "energy": 289896196580,
        "score": 0,
        "R": 100
    },
    {
        "problem_id": "FD125",
        "name": "default",
        "submit_time": "0",
        "energy": 17102808280340,
        "score": 0,
        "R": 100
    },
    {
        "problem_id": "FD126",
        "name": "default",
        "submit_time": "0",
        "energy": 9894762416916,
        "score": 0,
        "R": 100
    },
    {
        "problem_id": "FD127",
        "name": "default",
        "submit_time": "0",
        "energy": 6826510646912,
        "score": 0,
        "R": 100
    },
    {
        "problem_id": "FD128",
        "name": "default",
        "submit_time": "0",
        "energy": 11305843339176,
        "score": 0,
        "R": 100
    },
    {
        "problem_id": "FD129",
        "name": "default",
        "submit_time": "0",
        "energy": 8900411966200,
        "score": 0,
        "R": 100
    },
    {
        "problem_id": "FD130",
        "name": "default",
        "submit_time": "0",
        "energy": 14766526193436,
        "score": 0,
        "R": 100
    },
    {
        "problem_id": "FD131",
        "name": "default",
        "submit_time": "0",
        "energy": 15193366691812,
        "score": 0,
        "R": 100
    },
    {
        "problem_id": "FD132",
        "name": "default",
        "submit_time": "0",
        "energy": 9015942164280,
        "score": 0,
        "R": 100
    },
    {
        "problem_id": "FD133",
        "name": "default",
        "submit_time": "0",
        "energy": 8967552060852,
        "score": 0,
        "R": 100
    },
    {
        "problem_id": "FD134",
        "name": "default",
        "submit_time": "0",
        "energy": 7205381127316,
        "score": 0,
        "R": 100
    },
    {
        "problem_id": "FD135",
        "name": "default",
        "submit_time": "0",
        "energy": 5196879502292,
        "score": 0,
        "R": 100
    },
    {
        "problem_id": "FD136",
        "name": "default",
        "submit_time": "0",
        "energy": 16601927690344,
        "score": 0,
        "R": 100
    },
    {
        "problem_id": "FD137",
        "name": "default",
        "submit_time": "0",
        "energy": 72616578991876,
        "score": 0,
        "R": 120
    },
    {
        "problem_id": "FD138",
        "name": "default",
        "submit_time": "0",
        "energy": 79266513515712,
        "score": 0,
        "R": 120
    },
    {
        "problem_id": "FD139",
        "name": "default",
        "submit_time": "0",
        "energy": 43669420604304,
        "score": 0,
        "R": 120
    },
    {
        "problem_id": "FD140",
        "name": "default",
        "submit_time": "0",
        "energy": 12952135891576,
        "score": 0,
        "R": 120
    },
    {
        "problem_id": "FD141",
        "name": "default",
        "submit_time": "0",
        "energy": 22001070639172,
        "score": 0,
        "R": 120
    },
    {
        "problem_id": "FD142",
        "name": "default",
        "submit_time": "0",
        "energy": 3550999732392,
        "score": 0,
        "R": 120
    },
    {
        "problem_id": "FD143",
        "name": "default",
        "submit_time": "0",
        "energy": 21654933260224,
        "score": 0,
        "R": 120
    },
    {
        "problem_id": "FD144",
        "name": "default",
        "submit_time": "0",
        "energy": 82704845951344,
        "score": 0,
        "R": 120
    },
    {
        "problem_id": "FD145",
        "name": "default",
        "submit_time": "0",
        "energy": 56172665255556,
        "score": 0,
        "R": 120
    },
    {
        "problem_id": "FD146",
        "name": "default",
        "submit_time": "0",
        "energy": 27317005366120,
        "score": 0,
        "R": 120
    },
    {
        "problem_id": "FD147",
        "name": "default",
        "submit_time": "0",
        "energy": 25033556357960,
        "score": 0,
        "R": 120
    },
    {
        "problem_id": "FD148",
        "name": "default",
        "submit_time": "0",
        "energy": 46597035998484,
        "score": 0,
        "R": 120
    },
    {
        "problem_id": "FD149",
        "name": "default",
        "submit_time": "0",
        "energy": 39770066371280,
        "score": 0,
        "R": 120
    },
    {
        "problem_id": "FD150",
        "name": "default",
        "submit_time": "0",
        "energy": 27579937692376,
        "score": 0,
        "R": 120
    },
    {
        "problem_id": "FD151",
        "name": "default",
        "submit_time": "0",
        "energy": 27547952684444,
        "score": 0,
        "R": 120
    },
    {
        "problem_id": "FD152",
        "name": "default",
        "submit_time": "0",
        "energy": 52568070749240,
        "score": 0,
        "R": 120
    },
    {
        "problem_id": "FD153",
        "name": "default",
        "submit_time": "0",
        "energy": 12712478669308,
        "score": 0,
        "R": 120
    },
    {
        "problem_id": "FD154",
        "name": "default",
        "submit_time": "0",
        "energy": 29163442712544,
        "score": 0,
        "R": 120
    },
    {
        "problem_id": "FD155",
        "name": "default",
        "submit_time": "0",
        "energy": 7152792659052,
        "score": 0,
        "R": 120
    },
    {
        "problem_id": "FD156",
        "name": "default",
        "submit_time": "0",
        "energy": 11291958918800,
        "score": 0,
        "R": 120
    },
    {
        "problem_id": "FD157",
        "name": "default",
        "submit_time": "0",
        "energy": 63152885621012,
        "score": 0,
        "R": 130
    },
    {
        "problem_id": "FD158",
        "name": "default",
        "submit_time": "0",
        "energy": 39171722209580,
        "score": 0,
        "R": 130
    },
    {
        "problem_id": "FD159",
        "name": "default",
        "submit_time": "0",
        "energy": 17013424097532,
        "score": 0,
        "R": 140
    },
    {
        "problem_id": "FD160",
        "name": "default",
        "submit_time": "0",
        "energy": 43157027384664,
        "score": 0,
        "R": 140
    },
    {
        "problem_id": "FD161",
        "name": "default",
        "submit_time": "0",
        "energy": 38096568623076,
        "score": 0,
        "R": 140
    },
    {
        "problem_id": "FD162",
        "name": "default",
        "submit_time": "0",
        "energy": 113682400854004,
        "score": 0,
        "R": 140
    },
    {
        "problem_id": "FD163",
        "name": "default",
        "submit_time": "0",
        "energy": 209106615956332,
        "score": 0,
        "R": 140
    },
    {
        "problem_id": "FD164",
        "name": "default",
        "submit_time": "0",
        "energy": 301604291413584,
        "score": 0,
        "R": 150
    },
    {
        "problem_id": "FD165",
        "name": "default",
        "submit_time": "0",
        "energy": 216141172922448,
        "score": 0,
        "R": 150
    },
    {
        "problem_id": "FD166",
        "name": "default",
        "submit_time": "0",
        "energy": 61001105898980,
        "score": 0,
        "R": 160
    },
    {
        "problem_id": "FD167",
        "name": "default",
        "submit_time": "0",
        "energy": 137102296956884,
        "score": 0,
        "R": 160
    },
    {
        "problem_id": "FD168",
        "name": "default",
        "submit_time": "0",
        "energy": 46198242235668,
        "score": 0,
        "R": 160
    },
    {
        "problem_id": "FD169",
        "name": "default",
        "submit_time": "0",
        "energy": 143933076957360,
        "score": 0,
        "R": 160
    },
    {
        "problem_id": "FD170",
        "name": "default",
        "submit_time": "0",
        "energy": 159248104898028,
        "score": 0,
        "R": 160
    },
    {
        "problem_id": "FD171",
        "name": "default",
        "submit_time": "0",
        "energy": 56817780080864,
        "score": 0,
        "R": 160
    },
    {
        "problem_id": "FD172",
        "name": "default",
        "submit_time": "0",
        "energy": 86677501758768,
        "score": 0,
        "R": 160
    },
    {
        "problem_id": "FD173",
        "name": "default",
        "submit_time": "0",
        "energy": 1026356285673812,
        "score": 0,
        "R": 180
    },
    {
        "problem_id": "FD174",
        "name": "default",
        "submit_time": "0",
        "energy": 251868980514048,
        "score": 0,
        "R": 180
    },
    {
        "problem_id": "FD175",
        "name": "default",
        "submit_time": "0",
        "energy": 398454855926960,
        "score": 0,
        "R": 180
    },
    {
        "problem_id": "FD176",
        "name": "default",
        "submit_time": "0",
        "energy": 313068070904144,
        "score": 0,
        "R": 180
    },
    {
        "problem_id": "FD177",
        "name": "default",
        "submit_time": "0",
        "energy": 146023240520008,
        "score": 0,
        "R": 180
    },
    {
        "problem_id": "FD178",
        "name": "default",
        "submit_time": "0",
        "energy": 982122518611904,
        "score": 0,
        "R": 180
    },
    {
        "problem_id": "FD179",
        "name": "default",
        "submit_time": "0",
        "energy": 761317046489372,
        "score": 0,
        "R": 180
    },
    {
        "problem_id": "FD181",
        "name": "default",
        "submit_time": "0",
        "energy": 1790478447754912,
        "score": 0,
        "R": 200
    },
    {
        "problem_id": "FD182",
        "name": "default",
        "submit_time": "0",
        "energy": 736259152479260,
        "score": 0,
        "R": 200
    },
    {
        "problem_id": "FD183",
        "name": "default",
        "submit_time": "0",
        "energy": 550948171366300,
        "score": 0,
        "R": 200
    },
    {
        "problem_id": "FD185",
        "name": "default",
        "submit_time": "0",
        "energy": 484180408120164,
        "score": 0,
        "R": 200
    },
    {
        "problem_id": "FR005",
        "name": "default",
        "submit_time": "0",
        "energy": 655545536,
        "score": 0,
        "R": 20
    },
    {
        "problem_id": "FR009",
        "name": "default",
        "submit_time": "0",
        "energy": 723471044,
        "score": 0,
        "R": 20
    },
    {
        "problem_id": "FR014",
        "name": "default",
        "submit_time": "0",
        "energy": 34648755920,
        "score": 0,
        "R": 30
    },
    {
        "problem_id": "FR021",
        "name": "default",
        "submit_time": "0",
        "energy": 27672870544,
        "score": 0,
        "R": 30
    },
    {
        "problem_id": "FR024",
        "name": "default",
        "submit_time": "0",
        "energy": 31537423008,
        "score": 0,
        "R": 30
    },
    {
        "problem_id": "FR029",
        "name": "default",
        "submit_time": "0",
        "energy": 42068427280,
        "score": 0,
        "R": 30
    },
    {
        "problem_id": "FR047",
        "name": "default",
        "submit_time": "0",
        "energy": 876814471512,
        "score": 0,
        "R": 50
    },
    {
        "problem_id": "FR048",
        "name": "default",
        "submit_time": "0",
        "energy": 891150843848,
        "score": 0,
        "R": 50
    },
    {
        "problem_id": "FR058",
        "name": "default",
        "submit_time": "0",
        "energy": 1244903704068,
        "score": 0,
        "R": 60
    },
    {
        "problem_id": "FR063",
        "name": "default",
        "submit_time": "0",
        "energy": 2352547778380,
        "score": 0,
        "R": 70
    },
    {
        "problem_id": "FR067",
        "name": "default",
        "submit_time": "0",
        "energy": 6622426486064,
        "score": 0,
        "R": 70
    },
    {
        "problem_id": "FR078",
        "name": "default",
        "submit_time": "0",
        "energy": 16685598129172,
        "score": 0,
        "R": 100
    },
    {
        "problem_id": "FR083",
        "name": "default",
        "submit_time": "0",
        "energy": 10218283557336,
        "score": 0,
        "R": 100
    },
    {
        "problem_id": "FR085",
        "name": "default",
        "submit_time": "0",
        "energy": 18272539348888,
        "score": 0,
        "R": 100
    },
    {
        "problem_id": "FR087",
        "name": "default",
        "submit_time": "0",
        "energy": 83240932937556,
        "score": 0,
        "R": 120
    },
    {
        "problem_id": "FR100",
        "name": "default",
        "submit_time": "0",
        "energy": 355068355203024,
        "score": 0,
        "R": 150
    }
]
